{
	"root" : 
	{
		"launch_pt" : "POINT (-70.691666667 41.518055556)",
		"max_timeout" : 10000000,
		"mission" : 
		{
			"event" : 
			[
				"/abort*",
				"/fault/*"
			],
			"max_timeout" : 10000000,
			"subtask" : 
			{
				"continue_on_failure" : true,
				"max_timeout" : 0,
				"subtasks" : 
				[
					{
						"backup_dist" : 15,
						"end_pt" : "POINT (-70.675000000 41.520833333)",
						"global_shift_east" : "#shift_east",
						"global_shift_north" : "#shift_north",
						"local_shift_east" : 0,
						"local_shift_north" : 0,
						"max_timeout" : 10000000,
						"start_pt" : "POINT (-70.691666667 41.518055556)",
						"trackline" : 
						{
							"alarm_timeout" : 15,
							"altitude" : "#cam_alt",
							"cancel" : "/cancel/primitive",
							"depth_floor" : "#depth_floor",
							"depthacc" : 0.33000000000000002,
							"depthvel" : 0.33000000000000002,
							"end_pt" : "POINT (0.000000000 0.000000000)",
							"envelope" : 2.5,
							"gain" : 2,
							"max_timeout" : 10000000,
							"min_speed" : 0.20000000000000001,
							"speed" : "#cam_speed",
							"start_pt" : "POINT (0.000000000 0.000000000)",
							"timeout_increment" : 45,
							"timeout_multiplier" : 1.5,
							"type" : "lrauv_trackbf",
							"uuid" : "bee81e84-929b-4512-a4a8-b388d1d45823"
						},
						"type" : "transect",
						"uuid" : "b6b5c673-3015-45f4-a320-1bfc3599d819"
					}
				],
				"type" : "sequence",
				"uuid" : "95fc0a39-2d18-41e7-ba46-4c476aa0abcf"
			},
			"type" : "monitor",
			"uuid" : "5c27834a-9063-45fc-ae44-8c296307618f"
		},
		"type" : "simple_root",
		"uuid" : "27535ea9-d117-42b7-9b22-2d1c8605fe4a"
	},
	"shared" : 
	{
		"cam_alt" : 
		{
			"max" : 120,
			"min" : 1.5,
			"type" : "double",
			"value" : 20
		},
		"cam_speed" : 
		{
			"max" : 1.5,
			"min" : 0.20000000000000001,
			"type" : "double",
			"value" : 0.59999999999999998
		},
		"depth_floor" : 
		{
			"max" : 6000,
			"min" : 10,
			"type" : "double",
			"value" : 3000
		},
		"mb_alt" : 
		{
			"max" : 120,
			"min" : 1.5,
			"type" : "double",
			"value" : 65
		},
		"mb_high_alt" : 
		{
			"max" : 120,
			"min" : 1.5,
			"type" : "double",
			"value" : 100
		},
		"mb_speed" : 
		{
			"max" : 1.5,
			"min" : 0.20000000000000001,
			"type" : "double",
			"value" : 1
		},
		"shift_east" : 
		{
			"max" : 50000,
			"min" : -50000,
			"type" : "double",
			"value" : 0
		},
		"shift_north" : 
		{
			"max" : 50000,
			"min" : -50000,
			"type" : "double",
			"value" : 0
		}
	}
}
