{
    "shared" :
    {
	"cam_alt" :
	{
	    "max" : 120,
	    "min" : 1.5,
	    "type" : "double",
	    "value" : 20
	},
	"cam_speed" :
	{
	    "max" : 1.5,
	    "min" : 0.20000000000000001,
	    "type" : "double",
	    "value" : 0.59999999999999998
	},
	"depth_floor" :
	{
	    "max" : 6000,
	    "min" : 10,
	    "type" : "double",
	    "value" : 3000
	},
	"mb_high_alt" :
	{
	    "max" : 120,
	    "min" : 1.5,
	    "type" : "double",
	    "value" : 100
	},
	"mb_alt" :
	{
	    "max" : 120,
	    "min" : 1.5,
	    "type" : "double",
	    "value" : 65
	},
	"mb_speed" :
	{
	    "max" : 1.5,
	    "min" : 0.20000000000000001,
	    "type" : "double",
	    "value" : 1
	},
	"shift_east" :
	{
	    "max" : 50000,
	    "min" : -50000,
	    "type" : "double",
	    "value" : 0
	},
	"shift_north" :
	{
	    "max" : 50000,
	    "min" : -50000,
	    "type" : "double",
	    "value" : 0
	}
    },
    "root" : {
	"type" : "simple_root",
	"max_timeout": 10000000,
	"launch_pt": "POINT (-70.67350195849146 41.52263713125002)",
	"mission": {
	    "type" : "monitor",
	    "event" : [ "/abort*", "/fault/*" ],
	    "max_timeout" : 10000000,
	    "subtask" :
	    {
		"type": "sequence",
		"continue_on_failure": true,
		"max_timeout": 100000000,
		"subtasks":
		[
                    {
                        "type": "transect",
                        "max_timeout": 10000000,
                        "backup_dist": 15,
                        "global_shift_east": "#shift_east",
                        "global_shift_north": "#shift_north",
                        "start_pt": "POINT (-70.694164 41.530040)",
                        "end_pt": "POINT (-70.753410 41.554364)",
                        "trackline": {
                            "type": "lrauv_trackbf",
                            "altitude": "#cam_alt",
                            "depth_floor": "#depth_floor",
                            "speed": "#cam_speed",
                            "envelope": 2.5,
                            "gain": 2.0,
                            "depthvel": 0.33,
                            "depthacc": 0.33,
                            "min_speed": 0.2,
                            "alarm_timeout": 15.0,
                            "timeout_multiplier": 1.5,
                            "timeout_increment": 45,
                            "end_pt": "POINT (0.000000000 0.000000000)",
                            "max_timeout": 10000000,
                            "start_pt": "POINT (0.000000000 0.000000000)",
                        }
                    },
                    {
                        "type": "transect",
                        "max_timeout": 10000000,
                        "backup_dist": 15,
                        "global_shift_east": "#shift_east",
                        "global_shift_north": "#shift_north",
                        "start_pt": "POINT (-70.753410 41.554364)",
                        "end_pt": "POINT (-71.122178 41.384489)",
                        "trackline": {
                            "type": "lrauv_trackbf",
                            "altitude": "#cam_alt",
                            "depth_floor": "#depth_floor",
                            "speed": "#cam_speed",
                            "envelope": 2.5,
                            "gain": 2.0,
                            "depthvel": 0.33,
                            "depthacc": 0.33,
                            "min_speed": 0.2,
                            "alarm_timeout": 15.0,
                            "timeout_multiplier": 1.5,
                            "timeout_increment": 45,
                            "end_pt": "POINT (0.000000000 0.000000000)",
                            "max_timeout": 10000000,
                            "start_pt": "POINT (0.000000000 0.000000000)",
                        }
                    },
                    {
                        "type": "transect",
                        "max_timeout": 10000000,
                        "backup_dist": 15,
                        "global_shift_east": "#shift_east",
                        "global_shift_north": "#shift_north",
                        "start_pt": "POINT (-71.122178 41.384489)",
                        "end_pt": "POINT (-71.110949 41.192781)",
                        "trackline": {
                            "type": "lrauv_trackbf",
                            "altitude": "#cam_alt",
                            "depth_floor": "#depth_floor",
                            "speed": "#cam_speed",
                            "envelope": 2.5,
                            "gain": 2.0,
                            "depthvel": 0.33,
                            "depthacc": 0.33,
                            "min_speed": 0.2,
                            "alarm_timeout": 15.0,
                            "timeout_multiplier": 1.5,
                            "timeout_increment": 45,
                            "end_pt": "POINT (0.000000000 0.000000000)",
                            "max_timeout": 10000000,
                            "start_pt": "POINT (0.000000000 0.000000000)",
                        }
                    },
                    {
                        "type": "transect",
                        "max_timeout": 10000000,
                        "backup_dist": 15,
                        "global_shift_east": "#shift_east",
                        "global_shift_north": "#shift_north",
                        "start_pt": "POINT (-71.110949 41.192781)",
                        "end_pt": "POINT (-71.110579 41.134957)",
                        "trackline": {
                            "type": "lrauv_trackbf",
                            "altitude": "#cam_alt",
                            "depth_floor": "#depth_floor",
                            "speed": "#cam_speed",
                            "envelope": 2.5,
                            "gain": 2.0,
                            "depthvel": 0.33,
                            "depthacc": 0.33,
                            "min_speed": 0.2,
                            "alarm_timeout": 15.0,
                            "timeout_multiplier": 1.5,
                            "timeout_increment": 45,
                            "end_pt": "POINT (0.000000000 0.000000000)",
                            "max_timeout": 10000000,
                            "start_pt": "POINT (0.000000000 0.000000000)",
                        }
                    },
                    {
                        "type": "transect",
                        "max_timeout": 10000000,
                        "backup_dist": 15,
                        "global_shift_east": "#shift_east",
                        "global_shift_north": "#shift_north",
                        "start_pt": "POINT (-71.110579 41.134957)",
                        "end_pt": "POINT (-71.103175 41.122133)",
                        "trackline": {
                            "type": "lrauv_trackbf",
                            "altitude": "#cam_alt",
                            "depth_floor": "#depth_floor",
                            "speed": "#cam_speed",
                            "envelope": 2.5,
                            "gain": 2.0,
                            "depthvel": 0.33,
                            "depthacc": 0.33,
                            "min_speed": 0.2,
                            "alarm_timeout": 15.0,
                            "timeout_multiplier": 1.5,
                            "timeout_increment": 45,
                            "end_pt": "POINT (0.000000000 0.000000000)",
                            "max_timeout": 10000000,
                            "start_pt": "POINT (0.000000000 0.000000000)",
                        }
                    },
                    {
                        "type": "transect",
                        "max_timeout": 10000000,
                        "backup_dist": 15,
                        "global_shift_east": "#shift_east",
                        "global_shift_north": "#shift_north",
                        "start_pt": "POINT (-71.103175 41.122133)",
                        "end_pt": "POINT (-71.079366 41.122565)",
                        "trackline": {
                            "type": "lrauv_trackbf",
                            "altitude": "#cam_alt",
                            "depth_floor": "#depth_floor",
                            "speed": "#cam_speed",
                            "envelope": 2.5,
                            "gain": 2.0,
                            "depthvel": 0.33,
                            "depthacc": 0.33,
                            "min_speed": 0.2,
                            "alarm_timeout": 15.0,
                            "timeout_multiplier": 1.5,
                            "timeout_increment": 45,
                            "end_pt": "POINT (0.000000000 0.000000000)",
                            "max_timeout": 10000000,
                            "start_pt": "POINT (0.000000000 0.000000000)",
                        }
                    },
                    {
                        "type": "transect",
                        "max_timeout": 10000000,
                        "backup_dist": 15,
                        "global_shift_east": "#shift_east",
                        "global_shift_north": "#shift_north",
                        "start_pt": "POINT (-71.079366 41.122565)",
                        "end_pt": "POINT (-71.079337 41.121665)",
                        "trackline": {
                            "type": "lrauv_trackbf",
                            "altitude": "#cam_alt",
                            "depth_floor": "#depth_floor",
                            "speed": "#cam_speed",
                            "envelope": 2.5,
                            "gain": 2.0,
                            "depthvel": 0.33,
                            "depthacc": 0.33,
                            "min_speed": 0.2,
                            "alarm_timeout": 15.0,
                            "timeout_multiplier": 1.5,
                            "timeout_increment": 45,
                            "end_pt": "POINT (0.000000000 0.000000000)",
                            "max_timeout": 10000000,
                            "start_pt": "POINT (0.000000000 0.000000000)",
                        }
                    },
                    {
                        "type": "transect",
                        "max_timeout": 10000000,
                        "backup_dist": 15,
                        "global_shift_east": "#shift_east",
                        "global_shift_north": "#shift_north",
                        "start_pt": "POINT (-71.079337 41.121665)",
                        "end_pt": "POINT (-71.103146 41.121233)",
                        "trackline": {
                            "type": "lrauv_trackbf",
                            "altitude": "#cam_alt",
                            "depth_floor": "#depth_floor",
                            "speed": "#cam_speed",
                            "envelope": 2.5,
                            "gain": 2.0,
                            "depthvel": 0.33,
                            "depthacc": 0.33,
                            "min_speed": 0.2,
                            "alarm_timeout": 15.0,
                            "timeout_multiplier": 1.5,
                            "timeout_increment": 45,
                            "end_pt": "POINT (0.000000000 0.000000000)",
                            "max_timeout": 10000000,
                            "start_pt": "POINT (0.000000000 0.000000000)",
                        }
                    },
                    {
                        "type": "transect",
                        "max_timeout": 10000000,
                        "backup_dist": 15,
                        "global_shift_east": "#shift_east",
                        "global_shift_north": "#shift_north",
                        "start_pt": "POINT (-71.103146 41.121233)",
                        "end_pt": "POINT (-71.103117 41.120333)",
                        "trackline": {
                            "type": "lrauv_trackbf",
                            "altitude": "#cam_alt",
                            "depth_floor": "#depth_floor",
                            "speed": "#cam_speed",
                            "envelope": 2.5,
                            "gain": 2.0,
                            "depthvel": 0.33,
                            "depthacc": 0.33,
                            "min_speed": 0.2,
                            "alarm_timeout": 15.0,
                            "timeout_multiplier": 1.5,
                            "timeout_increment": 45,
                            "end_pt": "POINT (0.000000000 0.000000000)",
                            "max_timeout": 10000000,
                            "start_pt": "POINT (0.000000000 0.000000000)",
                        }
                    },
                    {
                        "type": "transect",
                        "max_timeout": 10000000,
                        "backup_dist": 15,
                        "global_shift_east": "#shift_east",
                        "global_shift_north": "#shift_north",
                        "start_pt": "POINT (-71.103117 41.120333)",
                        "end_pt": "POINT (-71.079309 41.120765)",
                        "trackline": {
                            "type": "lrauv_trackbf",
                            "altitude": "#cam_alt",
                            "depth_floor": "#depth_floor",
                            "speed": "#cam_speed",
                            "envelope": 2.5,
                            "gain": 2.0,
                            "depthvel": 0.33,
                            "depthacc": 0.33,
                            "min_speed": 0.2,
                            "alarm_timeout": 15.0,
                            "timeout_multiplier": 1.5,
                            "timeout_increment": 45,
                            "end_pt": "POINT (0.000000000 0.000000000)",
                            "max_timeout": 10000000,
                            "start_pt": "POINT (0.000000000 0.000000000)",
                        }
                    },
                    {
                        "type": "transect",
                        "max_timeout": 10000000,
                        "backup_dist": 15,
                        "global_shift_east": "#shift_east",
                        "global_shift_north": "#shift_north",
                        "start_pt": "POINT (-71.079309 41.120765)",
                        "end_pt": "POINT (-71.079280 41.119865)",
                        "trackline": {
                            "type": "lrauv_trackbf",
                            "altitude": "#cam_alt",
                            "depth_floor": "#depth_floor",
                            "speed": "#cam_speed",
                            "envelope": 2.5,
                            "gain": 2.0,
                            "depthvel": 0.33,
                            "depthacc": 0.33,
                            "min_speed": 0.2,
                            "alarm_timeout": 15.0,
                            "timeout_multiplier": 1.5,
                            "timeout_increment": 45,
                            "end_pt": "POINT (0.000000000 0.000000000)",
                            "max_timeout": 10000000,
                            "start_pt": "POINT (0.000000000 0.000000000)",
                        }
                    },
                    {
                        "type": "transect",
                        "max_timeout": 10000000,
                        "backup_dist": 15,
                        "global_shift_east": "#shift_east",
                        "global_shift_north": "#shift_north",
                        "start_pt": "POINT (-71.079280 41.119865)",
                        "end_pt": "POINT (-71.103088 41.119433)",
                        "trackline": {
                            "type": "lrauv_trackbf",
                            "altitude": "#cam_alt",
                            "depth_floor": "#depth_floor",
                            "speed": "#cam_speed",
                            "envelope": 2.5,
                            "gain": 2.0,
                            "depthvel": 0.33,
                            "depthacc": 0.33,
                            "min_speed": 0.2,
                            "alarm_timeout": 15.0,
                            "timeout_multiplier": 1.5,
                            "timeout_increment": 45,
                            "end_pt": "POINT (0.000000000 0.000000000)",
                            "max_timeout": 10000000,
                            "start_pt": "POINT (0.000000000 0.000000000)",
                        }
                    },
                    {
                        "type": "transect",
                        "max_timeout": 10000000,
                        "backup_dist": 15,
                        "global_shift_east": "#shift_east",
                        "global_shift_north": "#shift_north",
                        "start_pt": "POINT (-71.103088 41.119433)",
                        "end_pt": "POINT (-71.103060 41.118532)",
                        "trackline": {
                            "type": "lrauv_trackbf",
                            "altitude": "#cam_alt",
                            "depth_floor": "#depth_floor",
                            "speed": "#cam_speed",
                            "envelope": 2.5,
                            "gain": 2.0,
                            "depthvel": 0.33,
                            "depthacc": 0.33,
                            "min_speed": 0.2,
                            "alarm_timeout": 15.0,
                            "timeout_multiplier": 1.5,
                            "timeout_increment": 45,
                            "end_pt": "POINT (0.000000000 0.000000000)",
                            "max_timeout": 10000000,
                            "start_pt": "POINT (0.000000000 0.000000000)",
                        }
                    },
                    {
                        "type": "transect",
                        "max_timeout": 10000000,
                        "backup_dist": 15,
                        "global_shift_east": "#shift_east",
                        "global_shift_north": "#shift_north",
                        "start_pt": "POINT (-71.103060 41.118532)",
                        "end_pt": "POINT (-71.079252 41.118965)",
                        "trackline": {
                            "type": "lrauv_trackbf",
                            "altitude": "#cam_alt",
                            "depth_floor": "#depth_floor",
                            "speed": "#cam_speed",
                            "envelope": 2.5,
                            "gain": 2.0,
                            "depthvel": 0.33,
                            "depthacc": 0.33,
                            "min_speed": 0.2,
                            "alarm_timeout": 15.0,
                            "timeout_multiplier": 1.5,
                            "timeout_increment": 45,
                            "end_pt": "POINT (0.000000000 0.000000000)",
                            "max_timeout": 10000000,
                            "start_pt": "POINT (0.000000000 0.000000000)",
                        }
                    },
                    {
                        "type": "transect",
                        "max_timeout": 10000000,
                        "backup_dist": 15,
                        "global_shift_east": "#shift_east",
                        "global_shift_north": "#shift_north",
                        "start_pt": "POINT (-71.079252 41.118965)",
                        "end_pt": "POINT (-71.079223 41.118064)",
                        "trackline": {
                            "type": "lrauv_trackbf",
                            "altitude": "#cam_alt",
                            "depth_floor": "#depth_floor",
                            "speed": "#cam_speed",
                            "envelope": 2.5,
                            "gain": 2.0,
                            "depthvel": 0.33,
                            "depthacc": 0.33,
                            "min_speed": 0.2,
                            "alarm_timeout": 15.0,
                            "timeout_multiplier": 1.5,
                            "timeout_increment": 45,
                            "end_pt": "POINT (0.000000000 0.000000000)",
                            "max_timeout": 10000000,
                            "start_pt": "POINT (0.000000000 0.000000000)",
                        }
                    },
                    {
                        "type": "transect",
                        "max_timeout": 10000000,
                        "backup_dist": 15,
                        "global_shift_east": "#shift_east",
                        "global_shift_north": "#shift_north",
                        "start_pt": "POINT (-71.079223 41.118064)",
                        "end_pt": "POINT (-71.103031 41.117632)",
                        "trackline": {
                            "type": "lrauv_trackbf",
                            "altitude": "#cam_alt",
                            "depth_floor": "#depth_floor",
                            "speed": "#cam_speed",
                            "envelope": 2.5,
                            "gain": 2.0,
                            "depthvel": 0.33,
                            "depthacc": 0.33,
                            "min_speed": 0.2,
                            "alarm_timeout": 15.0,
                            "timeout_multiplier": 1.5,
                            "timeout_increment": 45,
                            "end_pt": "POINT (0.000000000 0.000000000)",
                            "max_timeout": 10000000,
                            "start_pt": "POINT (0.000000000 0.000000000)",
                        }
                    },
                    {
                        "type": "transect",
                        "max_timeout": 10000000,
                        "backup_dist": 15,
                        "global_shift_east": "#shift_east",
                        "global_shift_north": "#shift_north",
                        "start_pt": "POINT (-71.103031 41.117632)",
                        "end_pt": "POINT (-71.103002 41.116732)",
                        "trackline": {
                            "type": "lrauv_trackbf",
                            "altitude": "#cam_alt",
                            "depth_floor": "#depth_floor",
                            "speed": "#cam_speed",
                            "envelope": 2.5,
                            "gain": 2.0,
                            "depthvel": 0.33,
                            "depthacc": 0.33,
                            "min_speed": 0.2,
                            "alarm_timeout": 15.0,
                            "timeout_multiplier": 1.5,
                            "timeout_increment": 45,
                            "end_pt": "POINT (0.000000000 0.000000000)",
                            "max_timeout": 10000000,
                            "start_pt": "POINT (0.000000000 0.000000000)",
                        }
                    },
                    {
                        "type": "transect",
                        "max_timeout": 10000000,
                        "backup_dist": 15,
                        "global_shift_east": "#shift_east",
                        "global_shift_north": "#shift_north",
                        "start_pt": "POINT (-71.103002 41.116732)",
                        "end_pt": "POINT (-71.079195 41.117164)",
                        "trackline": {
                            "type": "lrauv_trackbf",
                            "altitude": "#cam_alt",
                            "depth_floor": "#depth_floor",
                            "speed": "#cam_speed",
                            "envelope": 2.5,
                            "gain": 2.0,
                            "depthvel": 0.33,
                            "depthacc": 0.33,
                            "min_speed": 0.2,
                            "alarm_timeout": 15.0,
                            "timeout_multiplier": 1.5,
                            "timeout_increment": 45,
                            "end_pt": "POINT (0.000000000 0.000000000)",
                            "max_timeout": 10000000,
                            "start_pt": "POINT (0.000000000 0.000000000)",
                        }
                    },
                    {
                        "type": "transect",
                        "max_timeout": 10000000,
                        "backup_dist": 15,
                        "global_shift_east": "#shift_east",
                        "global_shift_north": "#shift_north",
                        "start_pt": "POINT (-71.079195 41.117164)",
                        "end_pt": "POINT (-71.079167 41.116264)",
                        "trackline": {
                            "type": "lrauv_trackbf",
                            "altitude": "#cam_alt",
                            "depth_floor": "#depth_floor",
                            "speed": "#cam_speed",
                            "envelope": 2.5,
                            "gain": 2.0,
                            "depthvel": 0.33,
                            "depthacc": 0.33,
                            "min_speed": 0.2,
                            "alarm_timeout": 15.0,
                            "timeout_multiplier": 1.5,
                            "timeout_increment": 45,
                            "end_pt": "POINT (0.000000000 0.000000000)",
                            "max_timeout": 10000000,
                            "start_pt": "POINT (0.000000000 0.000000000)",
                        }
                    },
                    {
                        "type": "transect",
                        "max_timeout": 10000000,
                        "backup_dist": 15,
                        "global_shift_east": "#shift_east",
                        "global_shift_north": "#shift_north",
                        "start_pt": "POINT (-71.079167 41.116264)",
                        "end_pt": "POINT (-71.102973 41.115832)",
                        "trackline": {
                            "type": "lrauv_trackbf",
                            "altitude": "#cam_alt",
                            "depth_floor": "#depth_floor",
                            "speed": "#cam_speed",
                            "envelope": 2.5,
                            "gain": 2.0,
                            "depthvel": 0.33,
                            "depthacc": 0.33,
                            "min_speed": 0.2,
                            "alarm_timeout": 15.0,
                            "timeout_multiplier": 1.5,
                            "timeout_increment": 45,
                            "end_pt": "POINT (0.000000000 0.000000000)",
                            "max_timeout": 10000000,
                            "start_pt": "POINT (0.000000000 0.000000000)",
                        }
                    },
                    {
                        "type": "transect",
                        "max_timeout": 10000000,
                        "backup_dist": 15,
                        "global_shift_east": "#shift_east",
                        "global_shift_north": "#shift_north",
                        "start_pt": "POINT (-71.102973 41.115832)",
                        "end_pt": "POINT (-71.102945 41.114932)",
                        "trackline": {
                            "type": "lrauv_trackbf",
                            "altitude": "#cam_alt",
                            "depth_floor": "#depth_floor",
                            "speed": "#cam_speed",
                            "envelope": 2.5,
                            "gain": 2.0,
                            "depthvel": 0.33,
                            "depthacc": 0.33,
                            "min_speed": 0.2,
                            "alarm_timeout": 15.0,
                            "timeout_multiplier": 1.5,
                            "timeout_increment": 45,
                            "end_pt": "POINT (0.000000000 0.000000000)",
                            "max_timeout": 10000000,
                            "start_pt": "POINT (0.000000000 0.000000000)",
                        }
                    },
                    {
                        "type": "transect",
                        "max_timeout": 10000000,
                        "backup_dist": 15,
                        "global_shift_east": "#shift_east",
                        "global_shift_north": "#shift_north",
                        "start_pt": "POINT (-71.102945 41.114932)",
                        "end_pt": "POINT (-71.079138 41.115364)",
                        "trackline": {
                            "type": "lrauv_trackbf",
                            "altitude": "#cam_alt",
                            "depth_floor": "#depth_floor",
                            "speed": "#cam_speed",
                            "envelope": 2.5,
                            "gain": 2.0,
                            "depthvel": 0.33,
                            "depthacc": 0.33,
                            "min_speed": 0.2,
                            "alarm_timeout": 15.0,
                            "timeout_multiplier": 1.5,
                            "timeout_increment": 45,
                            "end_pt": "POINT (0.000000000 0.000000000)",
                            "max_timeout": 10000000,
                            "start_pt": "POINT (0.000000000 0.000000000)",
                        }
                    },
                    {
                        "type": "transect",
                        "max_timeout": 10000000,
                        "backup_dist": 15,
                        "global_shift_east": "#shift_east",
                        "global_shift_north": "#shift_north",
                        "start_pt": "POINT (-71.079138 41.115364)",
                        "end_pt": "POINT (-71.079110 41.114464)",
                        "trackline": {
                            "type": "lrauv_trackbf",
                            "altitude": "#cam_alt",
                            "depth_floor": "#depth_floor",
                            "speed": "#cam_speed",
                            "envelope": 2.5,
                            "gain": 2.0,
                            "depthvel": 0.33,
                            "depthacc": 0.33,
                            "min_speed": 0.2,
                            "alarm_timeout": 15.0,
                            "timeout_multiplier": 1.5,
                            "timeout_increment": 45,
                            "end_pt": "POINT (0.000000000 0.000000000)",
                            "max_timeout": 10000000,
                            "start_pt": "POINT (0.000000000 0.000000000)",
                        }
                    },
                    {
                        "type": "transect",
                        "max_timeout": 10000000,
                        "backup_dist": 15,
                        "global_shift_east": "#shift_east",
                        "global_shift_north": "#shift_north",
                        "start_pt": "POINT (-71.079110 41.114464)",
                        "end_pt": "POINT (-71.102916 41.114031)",
                        "trackline": {
                            "type": "lrauv_trackbf",
                            "altitude": "#cam_alt",
                            "depth_floor": "#depth_floor",
                            "speed": "#cam_speed",
                            "envelope": 2.5,
                            "gain": 2.0,
                            "depthvel": 0.33,
                            "depthacc": 0.33,
                            "min_speed": 0.2,
                            "alarm_timeout": 15.0,
                            "timeout_multiplier": 1.5,
                            "timeout_increment": 45,
                            "end_pt": "POINT (0.000000000 0.000000000)",
                            "max_timeout": 10000000,
                            "start_pt": "POINT (0.000000000 0.000000000)",
                        }
                    },
                    {
                        "type": "transect",
                        "max_timeout": 10000000,
                        "backup_dist": 15,
                        "global_shift_east": "#shift_east",
                        "global_shift_north": "#shift_north",
                        "start_pt": "POINT (-71.102916 41.114031)",
                        "end_pt": "POINT (-71.102887 41.113131)",
                        "trackline": {
                            "type": "lrauv_trackbf",
                            "altitude": "#cam_alt",
                            "depth_floor": "#depth_floor",
                            "speed": "#cam_speed",
                            "envelope": 2.5,
                            "gain": 2.0,
                            "depthvel": 0.33,
                            "depthacc": 0.33,
                            "min_speed": 0.2,
                            "alarm_timeout": 15.0,
                            "timeout_multiplier": 1.5,
                            "timeout_increment": 45,
                            "end_pt": "POINT (0.000000000 0.000000000)",
                            "max_timeout": 10000000,
                            "start_pt": "POINT (0.000000000 0.000000000)",
                        }
                    },
                    {
                        "type": "transect",
                        "max_timeout": 10000000,
                        "backup_dist": 15,
                        "global_shift_east": "#shift_east",
                        "global_shift_north": "#shift_north",
                        "start_pt": "POINT (-71.102887 41.113131)",
                        "end_pt": "POINT (-71.079081 41.113563)",
                        "trackline": {
                            "type": "lrauv_trackbf",
                            "altitude": "#cam_alt",
                            "depth_floor": "#depth_floor",
                            "speed": "#cam_speed",
                            "envelope": 2.5,
                            "gain": 2.0,
                            "depthvel": 0.33,
                            "depthacc": 0.33,
                            "min_speed": 0.2,
                            "alarm_timeout": 15.0,
                            "timeout_multiplier": 1.5,
                            "timeout_increment": 45,
                            "end_pt": "POINT (0.000000000 0.000000000)",
                            "max_timeout": 10000000,
                            "start_pt": "POINT (0.000000000 0.000000000)",
                        }
                    },
                    {
                        "type": "transect",
                        "max_timeout": 10000000,
                        "backup_dist": 15,
                        "global_shift_east": "#shift_east",
                        "global_shift_north": "#shift_north",
                        "start_pt": "POINT (-71.079081 41.113563)",
                        "end_pt": "POINT (-71.079053 41.112663)",
                        "trackline": {
                            "type": "lrauv_trackbf",
                            "altitude": "#cam_alt",
                            "depth_floor": "#depth_floor",
                            "speed": "#cam_speed",
                            "envelope": 2.5,
                            "gain": 2.0,
                            "depthvel": 0.33,
                            "depthacc": 0.33,
                            "min_speed": 0.2,
                            "alarm_timeout": 15.0,
                            "timeout_multiplier": 1.5,
                            "timeout_increment": 45,
                            "end_pt": "POINT (0.000000000 0.000000000)",
                            "max_timeout": 10000000,
                            "start_pt": "POINT (0.000000000 0.000000000)",
                        }
                    },
                    {
                        "type": "transect",
                        "max_timeout": 10000000,
                        "backup_dist": 15,
                        "global_shift_east": "#shift_east",
                        "global_shift_north": "#shift_north",
                        "start_pt": "POINT (-71.079053 41.112663)",
                        "end_pt": "POINT (-71.102858 41.112231)",
                        "trackline": {
                            "type": "lrauv_trackbf",
                            "altitude": "#cam_alt",
                            "depth_floor": "#depth_floor",
                            "speed": "#cam_speed",
                            "envelope": 2.5,
                            "gain": 2.0,
                            "depthvel": 0.33,
                            "depthacc": 0.33,
                            "min_speed": 0.2,
                            "alarm_timeout": 15.0,
                            "timeout_multiplier": 1.5,
                            "timeout_increment": 45,
                            "end_pt": "POINT (0.000000000 0.000000000)",
                            "max_timeout": 10000000,
                            "start_pt": "POINT (0.000000000 0.000000000)",
                        }
                    },
                    {
                        "type": "transect",
                        "max_timeout": 10000000,
                        "backup_dist": 15,
                        "global_shift_east": "#shift_east",
                        "global_shift_north": "#shift_north",
                        "start_pt": "POINT (-71.102858 41.112231)",
                        "end_pt": "POINT (-71.102830 41.111331)",
                        "trackline": {
                            "type": "lrauv_trackbf",
                            "altitude": "#cam_alt",
                            "depth_floor": "#depth_floor",
                            "speed": "#cam_speed",
                            "envelope": 2.5,
                            "gain": 2.0,
                            "depthvel": 0.33,
                            "depthacc": 0.33,
                            "min_speed": 0.2,
                            "alarm_timeout": 15.0,
                            "timeout_multiplier": 1.5,
                            "timeout_increment": 45,
                            "end_pt": "POINT (0.000000000 0.000000000)",
                            "max_timeout": 10000000,
                            "start_pt": "POINT (0.000000000 0.000000000)",
                        }
                    },
                    {
                        "type": "transect",
                        "max_timeout": 10000000,
                        "backup_dist": 15,
                        "global_shift_east": "#shift_east",
                        "global_shift_north": "#shift_north",
                        "start_pt": "POINT (-71.102830 41.111331)",
                        "end_pt": "POINT (-71.079025 41.111763)",
                        "trackline": {
                            "type": "lrauv_trackbf",
                            "altitude": "#cam_alt",
                            "depth_floor": "#depth_floor",
                            "speed": "#cam_speed",
                            "envelope": 2.5,
                            "gain": 2.0,
                            "depthvel": 0.33,
                            "depthacc": 0.33,
                            "min_speed": 0.2,
                            "alarm_timeout": 15.0,
                            "timeout_multiplier": 1.5,
                            "timeout_increment": 45,
                            "end_pt": "POINT (0.000000000 0.000000000)",
                            "max_timeout": 10000000,
                            "start_pt": "POINT (0.000000000 0.000000000)",
                        }
                    },
                    {
                        "type": "transect",
                        "max_timeout": 10000000,
                        "backup_dist": 15,
                        "global_shift_east": "#shift_east",
                        "global_shift_north": "#shift_north",
                        "start_pt": "POINT (-71.079025 41.111763)",
                        "end_pt": "POINT (-71.078996 41.110863)",
                        "trackline": {
                            "type": "lrauv_trackbf",
                            "altitude": "#cam_alt",
                            "depth_floor": "#depth_floor",
                            "speed": "#cam_speed",
                            "envelope": 2.5,
                            "gain": 2.0,
                            "depthvel": 0.33,
                            "depthacc": 0.33,
                            "min_speed": 0.2,
                            "alarm_timeout": 15.0,
                            "timeout_multiplier": 1.5,
                            "timeout_increment": 45,
                            "end_pt": "POINT (0.000000000 0.000000000)",
                            "max_timeout": 10000000,
                            "start_pt": "POINT (0.000000000 0.000000000)",
                        }
                    },
                    {
                        "type": "transect",
                        "max_timeout": 10000000,
                        "backup_dist": 15,
                        "global_shift_east": "#shift_east",
                        "global_shift_north": "#shift_north",
                        "start_pt": "POINT (-71.078996 41.110863)",
                        "end_pt": "POINT (-71.102801 41.110431)",
                        "trackline": {
                            "type": "lrauv_trackbf",
                            "altitude": "#cam_alt",
                            "depth_floor": "#depth_floor",
                            "speed": "#cam_speed",
                            "envelope": 2.5,
                            "gain": 2.0,
                            "depthvel": 0.33,
                            "depthacc": 0.33,
                            "min_speed": 0.2,
                            "alarm_timeout": 15.0,
                            "timeout_multiplier": 1.5,
                            "timeout_increment": 45,
                            "end_pt": "POINT (0.000000000 0.000000000)",
                            "max_timeout": 10000000,
                            "start_pt": "POINT (0.000000000 0.000000000)",
                        }
                    },
                    {
                        "type": "transect",
                        "max_timeout": 10000000,
                        "backup_dist": 15,
                        "global_shift_east": "#shift_east",
                        "global_shift_north": "#shift_north",
                        "start_pt": "POINT (-71.102801 41.110431)",
                        "end_pt": "POINT (-71.111000 41.135059)",
                        "trackline": {
                            "type": "lrauv_trackbf",
                            "altitude": "#cam_alt",
                            "depth_floor": "#depth_floor",
                            "speed": "#cam_speed",
                            "envelope": 2.5,
                            "gain": 2.0,
                            "depthvel": 0.33,
                            "depthacc": 0.33,
                            "min_speed": 0.2,
                            "alarm_timeout": 15.0,
                            "timeout_multiplier": 1.5,
                            "timeout_increment": 45,
                            "end_pt": "POINT (0.000000000 0.000000000)",
                            "max_timeout": 10000000,
                            "start_pt": "POINT (0.000000000 0.000000000)",
                        }
                    },
                    {
                        "type": "transect",
                        "max_timeout": 10000000,
                        "backup_dist": 15,
                        "global_shift_east": "#shift_east",
                        "global_shift_north": "#shift_north",
                        "start_pt": "POINT (-71.111000 41.135059)",
                        "end_pt": "POINT (-71.110455 41.193280)",
                        "trackline": {
                            "type": "lrauv_trackbf",
                            "altitude": "#cam_alt",
                            "depth_floor": "#depth_floor",
                            "speed": "#cam_speed",
                            "envelope": 2.5,
                            "gain": 2.0,
                            "depthvel": 0.33,
                            "depthacc": 0.33,
                            "min_speed": 0.2,
                            "alarm_timeout": 15.0,
                            "timeout_multiplier": 1.5,
                            "timeout_increment": 45,
                            "end_pt": "POINT (0.000000000 0.000000000)",
                            "max_timeout": 10000000,
                            "start_pt": "POINT (0.000000000 0.000000000)",
                        }
                    },
                    {
                        "type": "transect",
                        "max_timeout": 10000000,
                        "backup_dist": 15,
                        "global_shift_east": "#shift_east",
                        "global_shift_north": "#shift_north",
                        "start_pt": "POINT (-71.110455 41.193280)",
                        "end_pt": "POINT (-71.121708 41.383997)",
                        "trackline": {
                            "type": "lrauv_trackbf",
                            "altitude": "#cam_alt",
                            "depth_floor": "#depth_floor",
                            "speed": "#cam_speed",
                            "envelope": 2.5,
                            "gain": 2.0,
                            "depthvel": 0.33,
                            "depthacc": 0.33,
                            "min_speed": 0.2,
                            "alarm_timeout": 15.0,
                            "timeout_multiplier": 1.5,
                            "timeout_increment": 45,
                            "end_pt": "POINT (0.000000000 0.000000000)",
                            "max_timeout": 10000000,
                            "start_pt": "POINT (0.000000000 0.000000000)",
                        }
                    },
                    {
                        "type": "transect",
                        "max_timeout": 10000000,
                        "backup_dist": 15,
                        "global_shift_east": "#shift_east",
                        "global_shift_north": "#shift_north",
                        "start_pt": "POINT (-71.121708 41.383997)",
                        "end_pt": "POINT (-70.753036 41.553930)",
                        "trackline": {
                            "type": "lrauv_trackbf",
                            "altitude": "#cam_alt",
                            "depth_floor": "#depth_floor",
                            "speed": "#cam_speed",
                            "envelope": 2.5,
                            "gain": 2.0,
                            "depthvel": 0.33,
                            "depthacc": 0.33,
                            "min_speed": 0.2,
                            "alarm_timeout": 15.0,
                            "timeout_multiplier": 1.5,
                            "timeout_increment": 45,
                            "end_pt": "POINT (0.000000000 0.000000000)",
                            "max_timeout": 10000000,
                            "start_pt": "POINT (0.000000000 0.000000000)",
                        }
                    },
                    {
                        "type": "transect",
                        "max_timeout": 10000000,
                        "backup_dist": 15,
                        "global_shift_east": "#shift_east",
                        "global_shift_north": "#shift_north",
                        "start_pt": "POINT (-70.753036 41.553930)",
                        "end_pt": "POINT (-70.694123 41.529372)",
                        "trackline": {
                            "type": "lrauv_trackbf",
                            "altitude": "#cam_alt",
                            "depth_floor": "#depth_floor",
                            "speed": "#cam_speed",
                            "envelope": 2.5,
                            "gain": 2.0,
                            "depthvel": 0.33,
                            "depthacc": 0.33,
                            "min_speed": 0.2,
                            "alarm_timeout": 15.0,
                            "timeout_multiplier": 1.5,
                            "timeout_increment": 45,
                            "end_pt": "POINT (0.000000000 0.000000000)",
                            "max_timeout": 10000000,
                            "start_pt": "POINT (0.000000000 0.000000000)",
                        }
                    }
                ]
            }
        }
    }
}

