{
	"root" : 
	{
		"launch_pt" : "POINT (-70.673501958 41.522637131)",
		"max_timeout" : 10000000,
		"mission" : 
		{
			"event" : 
			[
				"/abort*",
				"/fault/*"
			],
			"max_timeout" : 10000000,
			"subtask" : 
			{
				"continue_on_failure" : true,
				"max_timeout" : 100000000,
				"subtasks" : 
				[
					{
						"backup_dist" : 15,
						"end_pt" : "POINT (-70.753410 41.554364)",
						"global_shift_east" : "#shift_east",
						"global_shift_north" : "#shift_north",
						"local_shift_east" : 0,
						"local_shift_north" : 0,
						"max_timeout" : 10000000,
						"start_pt" : "POINT (-70.694164 41.530040)",
						"trackline" : 
						{
							"alarm_timeout" : 15,
							"altitude" : "#cam_alt",
							"cancel" : "/cancel/primitive",
							"depth_floor" : "#depth_floor",
							"depthacc" : 0.33000000000000002,
							"depthvel" : 0.33000000000000002,
							"end_pt" : "POINT (0.000000000 0.000000000)",
							"envelope" : 2.5,
							"gain" : 2,
							"max_timeout" : 10000000,
							"min_speed" : 0.20000000000000001,
							"speed" : "#cam_speed",
							"start_pt" : "POINT (0.000000000 0.000000000)",
							"timeout_increment" : 45,
							"timeout_multiplier" : 1.5,
							"type" : "lrauv_trackbf",
							"uuid" : "00000000-0000-0000-0000-000000000001"
						},
						"type" : "transect",
						"uuid" : "00000000-0000-0000-0000-f00000000001"
					},
					{
						"backup_dist" : 15,
						"end_pt" : "POINT (-71.122178 41.384489)",
						"global_shift_east" : "#shift_east",
						"global_shift_north" : "#shift_north",
						"local_shift_east" : 0,
						"local_shift_north" : 0,
						"max_timeout" : 10000000,
						"start_pt" : "POINT (-70.753410 41.554364)",
						"trackline" : 
						{
							"alarm_timeout" : 15,
							"altitude" : "#cam_alt",
							"cancel" : "/cancel/primitive",
							"depth_floor" : "#depth_floor",
							"depthacc" : 0.33000000000000002,
							"depthvel" : 0.33000000000000002,
							"end_pt" : "POINT (0.000000000 0.000000000)",
							"envelope" : 2.5,
							"gain" : 2,
							"max_timeout" : 10000000,
							"min_speed" : 0.20000000000000001,
							"speed" : "#cam_speed",
							"start_pt" : "POINT (0.000000000 0.000000000)",
							"timeout_increment" : 45,
							"timeout_multiplier" : 1.5,
							"type" : "lrauv_trackbf",
							"uuid" : "00000000-0000-0000-0000-000000000002"
						},
						"type" : "transect",
						"uuid" : "00000000-0000-0000-0000-f00000000002"
					},
					{
						"backup_dist" : 15,
						"end_pt" : "POINT (-71.110949 41.192781)",
						"global_shift_east" : "#shift_east",
						"global_shift_north" : "#shift_north",
						"local_shift_east" : 0,
						"local_shift_north" : 0,
						"max_timeout" : 10000000,
						"start_pt" : "POINT (-71.122178 41.384489)",
						"trackline" : 
						{
							"alarm_timeout" : 15,
							"altitude" : "#cam_alt",
							"cancel" : "/cancel/primitive",
							"depth_floor" : "#depth_floor",
							"depthacc" : 0.33000000000000002,
							"depthvel" : 0.33000000000000002,
							"end_pt" : "POINT (0.000000000 0.000000000)",
							"envelope" : 2.5,
							"gain" : 2,
							"max_timeout" : 10000000,
							"min_speed" : 0.20000000000000001,
							"speed" : "#cam_speed",
							"start_pt" : "POINT (0.000000000 0.000000000)",
							"timeout_increment" : 45,
							"timeout_multiplier" : 1.5,
							"type" : "lrauv_trackbf",
							"uuid" : "00000000-0000-0000-0000-000000000003"
						},
						"type" : "transect",
						"uuid" : "00000000-0000-0000-0000-f00000000003"
					},
					{
						"backup_dist" : 15,
						"end_pt" : "POINT (-71.110579 41.134957)",
						"global_shift_east" : "#shift_east",
						"global_shift_north" : "#shift_north",
						"local_shift_east" : 0,
						"local_shift_north" : 0,
						"max_timeout" : 10000000,
						"start_pt" : "POINT (-71.110949 41.192781)",
						"trackline" : 
						{
							"alarm_timeout" : 15,
							"altitude" : "#cam_alt",
							"cancel" : "/cancel/primitive",
							"depth_floor" : "#depth_floor",
							"depthacc" : 0.33000000000000002,
							"depthvel" : 0.33000000000000002,
							"end_pt" : "POINT (0.000000000 0.000000000)",
							"envelope" : 2.5,
							"gain" : 2,
							"max_timeout" : 10000000,
							"min_speed" : 0.20000000000000001,
							"speed" : "#cam_speed",
							"start_pt" : "POINT (0.000000000 0.000000000)",
							"timeout_increment" : 45,
							"timeout_multiplier" : 1.5,
							"type" : "lrauv_trackbf",
							"uuid" : "00000000-0000-0000-0000-000000000004"
						},
						"type" : "transect",
						"uuid" : "00000000-0000-0000-0000-f00000000004"
					},
					{
						"backup_dist" : 15,
						"end_pt" : "POINT (-71.103175 41.122133)",
						"global_shift_east" : "#shift_east",
						"global_shift_north" : "#shift_north",
						"local_shift_east" : 0,
						"local_shift_north" : 0,
						"max_timeout" : 10000000,
						"start_pt" : "POINT (-71.110579 41.134957)",
						"trackline" : 
						{
							"alarm_timeout" : 15,
							"altitude" : "#cam_alt",
							"cancel" : "/cancel/primitive",
							"depth_floor" : "#depth_floor",
							"depthacc" : 0.33000000000000002,
							"depthvel" : 0.33000000000000002,
							"end_pt" : "POINT (0.000000000 0.000000000)",
							"envelope" : 2.5,
							"gain" : 2,
							"max_timeout" : 10000000,
							"min_speed" : 0.20000000000000001,
							"speed" : "#cam_speed",
							"start_pt" : "POINT (0.000000000 0.000000000)",
							"timeout_increment" : 45,
							"timeout_multiplier" : 1.5,
							"type" : "lrauv_trackbf",
							"uuid" : "00000000-0000-0000-0000-000000000005"
						},
						"type" : "transect",
						"uuid" : "00000000-0000-0000-0000-f00000000005"
					},
					{
						"backup_dist" : 15,
						"end_pt" : "POINT (-71.079366 41.122565)",
						"global_shift_east" : "#shift_east",
						"global_shift_north" : "#shift_north",
						"local_shift_east" : 0,
						"local_shift_north" : 0,
						"max_timeout" : 10000000,
						"start_pt" : "POINT (-71.103175 41.122133)",
						"trackline" : 
						{
							"alarm_timeout" : 15,
							"altitude" : "#cam_alt",
							"cancel" : "/cancel/primitive",
							"depth_floor" : "#depth_floor",
							"depthacc" : 0.33000000000000002,
							"depthvel" : 0.33000000000000002,
							"end_pt" : "POINT (0.000000000 0.000000000)",
							"envelope" : 2.5,
							"gain" : 2,
							"max_timeout" : 10000000,
							"min_speed" : 0.20000000000000001,
							"speed" : "#cam_speed",
							"start_pt" : "POINT (0.000000000 0.000000000)",
							"timeout_increment" : 45,
							"timeout_multiplier" : 1.5,
							"type" : "lrauv_trackbf",
							"uuid" : "00000000-0000-0000-0000-000000000006"
						},
						"type" : "transect",
						"uuid" : "00000000-0000-0000-0000-f00000000006"
					},
					{
						"backup_dist" : 15,
						"end_pt" : "POINT (-71.079337 41.121665)",
						"global_shift_east" : "#shift_east",
						"global_shift_north" : "#shift_north",
						"local_shift_east" : 0,
						"local_shift_north" : 0,
						"max_timeout" : 10000000,
						"start_pt" : "POINT (-71.079366 41.122565)",
						"trackline" : 
						{
							"alarm_timeout" : 15,
							"altitude" : "#cam_alt",
							"cancel" : "/cancel/primitive",
							"depth_floor" : "#depth_floor",
							"depthacc" : 0.33000000000000002,
							"depthvel" : 0.33000000000000002,
							"end_pt" : "POINT (0.000000000 0.000000000)",
							"envelope" : 2.5,
							"gain" : 2,
							"max_timeout" : 10000000,
							"min_speed" : 0.20000000000000001,
							"speed" : "#cam_speed",
							"start_pt" : "POINT (0.000000000 0.000000000)",
							"timeout_increment" : 45,
							"timeout_multiplier" : 1.5,
							"type" : "lrauv_trackbf",
							"uuid" : "00000000-0000-0000-0000-000000000007"
						},
						"type" : "transect",
						"uuid" : "00000000-0000-0000-0000-f00000000007"
					},
					{
						"backup_dist" : 15,
						"end_pt" : "POINT (-71.103146 41.121233)",
						"global_shift_east" : "#shift_east",
						"global_shift_north" : "#shift_north",
						"local_shift_east" : 0,
						"local_shift_north" : 0,
						"max_timeout" : 10000000,
						"start_pt" : "POINT (-71.079337 41.121665)",
						"trackline" : 
						{
							"alarm_timeout" : 15,
							"altitude" : "#cam_alt",
							"cancel" : "/cancel/primitive",
							"depth_floor" : "#depth_floor",
							"depthacc" : 0.33000000000000002,
							"depthvel" : 0.33000000000000002,
							"end_pt" : "POINT (0.000000000 0.000000000)",
							"envelope" : 2.5,
							"gain" : 2,
							"max_timeout" : 10000000,
							"min_speed" : 0.20000000000000001,
							"speed" : "#cam_speed",
							"start_pt" : "POINT (0.000000000 0.000000000)",
							"timeout_increment" : 45,
							"timeout_multiplier" : 1.5,
							"type" : "lrauv_trackbf",
							"uuid" : "00000000-0000-0000-0000-000000000008"
						},
						"type" : "transect",
						"uuid" : "00000000-0000-0000-0000-f00000000008"
					},
					{
						"backup_dist" : 15,
						"end_pt" : "POINT (-71.103117 41.120333)",
						"global_shift_east" : "#shift_east",
						"global_shift_north" : "#shift_north",
						"local_shift_east" : 0,
						"local_shift_north" : 0,
						"max_timeout" : 10000000,
						"start_pt" : "POINT (-71.103146 41.121233)",
						"trackline" : 
						{
							"alarm_timeout" : 15,
							"altitude" : "#cam_alt",
							"cancel" : "/cancel/primitive",
							"depth_floor" : "#depth_floor",
							"depthacc" : 0.33000000000000002,
							"depthvel" : 0.33000000000000002,
							"end_pt" : "POINT (0.000000000 0.000000000)",
							"envelope" : 2.5,
							"gain" : 2,
							"max_timeout" : 10000000,
							"min_speed" : 0.20000000000000001,
							"speed" : "#cam_speed",
							"start_pt" : "POINT (0.000000000 0.000000000)",
							"timeout_increment" : 45,
							"timeout_multiplier" : 1.5,
							"type" : "lrauv_trackbf",
							"uuid" : "00000000-0000-0000-0000-000000000009"
						},
						"type" : "transect",
						"uuid" : "00000000-0000-0000-0000-f00000000009"
					},
					{
						"backup_dist" : 15,
						"end_pt" : "POINT (-71.079309 41.120765)",
						"global_shift_east" : "#shift_east",
						"global_shift_north" : "#shift_north",
						"local_shift_east" : 0,
						"local_shift_north" : 0,
						"max_timeout" : 10000000,
						"start_pt" : "POINT (-71.103117 41.120333)",
						"trackline" : 
						{
							"alarm_timeout" : 15,
							"altitude" : "#cam_alt",
							"cancel" : "/cancel/primitive",
							"depth_floor" : "#depth_floor",
							"depthacc" : 0.33000000000000002,
							"depthvel" : 0.33000000000000002,
							"end_pt" : "POINT (0.000000000 0.000000000)",
							"envelope" : 2.5,
							"gain" : 2,
							"max_timeout" : 10000000,
							"min_speed" : 0.20000000000000001,
							"speed" : "#cam_speed",
							"start_pt" : "POINT (0.000000000 0.000000000)",
							"timeout_increment" : 45,
							"timeout_multiplier" : 1.5,
							"type" : "lrauv_trackbf",
							"uuid" : "00000000-0000-0000-0000-000000000010"
						},
						"type" : "transect",
						"uuid" : "00000000-0000-0000-0000-f00000000010"
					},
					{
						"backup_dist" : 15,
						"end_pt" : "POINT (-71.079280 41.119865)",
						"global_shift_east" : "#shift_east",
						"global_shift_north" : "#shift_north",
						"local_shift_east" : 0,
						"local_shift_north" : 0,
						"max_timeout" : 10000000,
						"start_pt" : "POINT (-71.079309 41.120765)",
						"trackline" : 
						{
							"alarm_timeout" : 15,
							"altitude" : "#cam_alt",
							"cancel" : "/cancel/primitive",
							"depth_floor" : "#depth_floor",
							"depthacc" : 0.33000000000000002,
							"depthvel" : 0.33000000000000002,
							"end_pt" : "POINT (0.000000000 0.000000000)",
							"envelope" : 2.5,
							"gain" : 2,
							"max_timeout" : 10000000,
							"min_speed" : 0.20000000000000001,
							"speed" : "#cam_speed",
							"start_pt" : "POINT (0.000000000 0.000000000)",
							"timeout_increment" : 45,
							"timeout_multiplier" : 1.5,
							"type" : "lrauv_trackbf",
							"uuid" : "00000000-0000-0000-0000-000000000011"
						},
						"type" : "transect",
						"uuid" : "00000000-0000-0000-0000-f00000000011"
					},
					{
						"backup_dist" : 15,
						"end_pt" : "POINT (-71.103088 41.119433)",
						"global_shift_east" : "#shift_east",
						"global_shift_north" : "#shift_north",
						"local_shift_east" : 0,
						"local_shift_north" : 0,
						"max_timeout" : 10000000,
						"start_pt" : "POINT (-71.079280 41.119865)",
						"trackline" : 
						{
							"alarm_timeout" : 15,
							"altitude" : "#cam_alt",
							"cancel" : "/cancel/primitive",
							"depth_floor" : "#depth_floor",
							"depthacc" : 0.33000000000000002,
							"depthvel" : 0.33000000000000002,
							"end_pt" : "POINT (0.000000000 0.000000000)",
							"envelope" : 2.5,
							"gain" : 2,
							"max_timeout" : 10000000,
							"min_speed" : 0.20000000000000001,
							"speed" : "#cam_speed",
							"start_pt" : "POINT (0.000000000 0.000000000)",
							"timeout_increment" : 45,
							"timeout_multiplier" : 1.5,
							"type" : "lrauv_trackbf",
							"uuid" : "00000000-0000-0000-0000-000000000012"
						},
						"type" : "transect",
						"uuid" : "00000000-0000-0000-0000-f00000000012"
					},
					{
						"backup_dist" : 15,
						"end_pt" : "POINT (-71.103060 41.118532)",
						"global_shift_east" : "#shift_east",
						"global_shift_north" : "#shift_north",
						"local_shift_east" : 0,
						"local_shift_north" : 0,
						"max_timeout" : 10000000,
						"start_pt" : "POINT (-71.103088 41.119433)",
						"trackline" : 
						{
							"alarm_timeout" : 15,
							"altitude" : "#cam_alt",
							"cancel" : "/cancel/primitive",
							"depth_floor" : "#depth_floor",
							"depthacc" : 0.33000000000000002,
							"depthvel" : 0.33000000000000002,
							"end_pt" : "POINT (0.000000000 0.000000000)",
							"envelope" : 2.5,
							"gain" : 2,
							"max_timeout" : 10000000,
							"min_speed" : 0.20000000000000001,
							"speed" : "#cam_speed",
							"start_pt" : "POINT (0.000000000 0.000000000)",
							"timeout_increment" : 45,
							"timeout_multiplier" : 1.5,
							"type" : "lrauv_trackbf",
							"uuid" : "00000000-0000-0000-0000-000000000013"
						},
						"type" : "transect",
						"uuid" : "00000000-0000-0000-0000-f00000000013"
					},
					{
						"backup_dist" : 15,
						"end_pt" : "POINT (-71.079252 41.118965)",
						"global_shift_east" : "#shift_east",
						"global_shift_north" : "#shift_north",
						"local_shift_east" : 0,
						"local_shift_north" : 0,
						"max_timeout" : 10000000,
						"start_pt" : "POINT (-71.103060 41.118532)",
						"trackline" : 
						{
							"alarm_timeout" : 15,
							"altitude" : "#cam_alt",
							"cancel" : "/cancel/primitive",
							"depth_floor" : "#depth_floor",
							"depthacc" : 0.33000000000000002,
							"depthvel" : 0.33000000000000002,
							"end_pt" : "POINT (0.000000000 0.000000000)",
							"envelope" : 2.5,
							"gain" : 2,
							"max_timeout" : 10000000,
							"min_speed" : 0.20000000000000001,
							"speed" : "#cam_speed",
							"start_pt" : "POINT (0.000000000 0.000000000)",
							"timeout_increment" : 45,
							"timeout_multiplier" : 1.5,
							"type" : "lrauv_trackbf",
							"uuid" : "00000000-0000-0000-0000-000000000014"
						},
						"type" : "transect",
						"uuid" : "00000000-0000-0000-0000-f00000000014"
					},
					{
						"backup_dist" : 15,
						"end_pt" : "POINT (-71.079223 41.118064)",
						"global_shift_east" : "#shift_east",
						"global_shift_north" : "#shift_north",
						"local_shift_east" : 0,
						"local_shift_north" : 0,
						"max_timeout" : 10000000,
						"start_pt" : "POINT (-71.079252 41.118965)",
						"trackline" : 
						{
							"alarm_timeout" : 15,
							"altitude" : "#cam_alt",
							"cancel" : "/cancel/primitive",
							"depth_floor" : "#depth_floor",
							"depthacc" : 0.33000000000000002,
							"depthvel" : 0.33000000000000002,
							"end_pt" : "POINT (0.000000000 0.000000000)",
							"envelope" : 2.5,
							"gain" : 2,
							"max_timeout" : 10000000,
							"min_speed" : 0.20000000000000001,
							"speed" : "#cam_speed",
							"start_pt" : "POINT (0.000000000 0.000000000)",
							"timeout_increment" : 45,
							"timeout_multiplier" : 1.5,
							"type" : "lrauv_trackbf",
							"uuid" : "00000000-0000-0000-0000-000000000015"
						},
						"type" : "transect",
						"uuid" : "00000000-0000-0000-0000-f00000000015"
					},
					{
						"backup_dist" : 15,
						"end_pt" : "POINT (-71.103031 41.117632)",
						"global_shift_east" : "#shift_east",
						"global_shift_north" : "#shift_north",
						"local_shift_east" : 0,
						"local_shift_north" : 0,
						"max_timeout" : 10000000,
						"start_pt" : "POINT (-71.079223 41.118064)",
						"trackline" : 
						{
							"alarm_timeout" : 15,
							"altitude" : "#cam_alt",
							"cancel" : "/cancel/primitive",
							"depth_floor" : "#depth_floor",
							"depthacc" : 0.33000000000000002,
							"depthvel" : 0.33000000000000002,
							"end_pt" : "POINT (0.000000000 0.000000000)",
							"envelope" : 2.5,
							"gain" : 2,
							"max_timeout" : 10000000,
							"min_speed" : 0.20000000000000001,
							"speed" : "#cam_speed",
							"start_pt" : "POINT (0.000000000 0.000000000)",
							"timeout_increment" : 45,
							"timeout_multiplier" : 1.5,
							"type" : "lrauv_trackbf",
							"uuid" : "00000000-0000-0000-0000-000000000016"
						},
						"type" : "transect",
						"uuid" : "00000000-0000-0000-0000-f00000000016"
					},
					{
						"backup_dist" : 15,
						"end_pt" : "POINT (-71.103002 41.116732)",
						"global_shift_east" : "#shift_east",
						"global_shift_north" : "#shift_north",
						"local_shift_east" : 0,
						"local_shift_north" : 0,
						"max_timeout" : 10000000,
						"start_pt" : "POINT (-71.103031 41.117632)",
						"trackline" : 
						{
							"alarm_timeout" : 15,
							"altitude" : "#cam_alt",
							"cancel" : "/cancel/primitive",
							"depth_floor" : "#depth_floor",
							"depthacc" : 0.33000000000000002,
							"depthvel" : 0.33000000000000002,
							"end_pt" : "POINT (0.000000000 0.000000000)",
							"envelope" : 2.5,
							"gain" : 2,
							"max_timeout" : 10000000,
							"min_speed" : 0.20000000000000001,
							"speed" : "#cam_speed",
							"start_pt" : "POINT (0.000000000 0.000000000)",
							"timeout_increment" : 45,
							"timeout_multiplier" : 1.5,
							"type" : "lrauv_trackbf",
							"uuid" : "00000000-0000-0000-0000-000000000017"
						},
						"type" : "transect",
						"uuid" : "00000000-0000-0000-0000-f00000000017"
					},
					{
						"backup_dist" : 15,
						"end_pt" : "POINT (-71.079195 41.117164)",
						"global_shift_east" : "#shift_east",
						"global_shift_north" : "#shift_north",
						"local_shift_east" : 0,
						"local_shift_north" : 0,
						"max_timeout" : 10000000,
						"start_pt" : "POINT (-71.103002 41.116732)",
						"trackline" : 
						{
							"alarm_timeout" : 15,
							"altitude" : "#cam_alt",
							"cancel" : "/cancel/primitive",
							"depth_floor" : "#depth_floor",
							"depthacc" : 0.33000000000000002,
							"depthvel" : 0.33000000000000002,
							"end_pt" : "POINT (0.000000000 0.000000000)",
							"envelope" : 2.5,
							"gain" : 2,
							"max_timeout" : 10000000,
							"min_speed" : 0.20000000000000001,
							"speed" : "#cam_speed",
							"start_pt" : "POINT (0.000000000 0.000000000)",
							"timeout_increment" : 45,
							"timeout_multiplier" : 1.5,
							"type" : "lrauv_trackbf",
							"uuid" : "00000000-0000-0000-0000-000000000018"
						},
						"type" : "transect",
						"uuid" : "00000000-0000-0000-0000-f00000000018"
					},
					{
						"backup_dist" : 15,
						"end_pt" : "POINT (-71.079167 41.116264)",
						"global_shift_east" : "#shift_east",
						"global_shift_north" : "#shift_north",
						"local_shift_east" : 0,
						"local_shift_north" : 0,
						"max_timeout" : 10000000,
						"start_pt" : "POINT (-71.079195 41.117164)",
						"trackline" : 
						{
							"alarm_timeout" : 15,
							"altitude" : "#cam_alt",
							"cancel" : "/cancel/primitive",
							"depth_floor" : "#depth_floor",
							"depthacc" : 0.33000000000000002,
							"depthvel" : 0.33000000000000002,
							"end_pt" : "POINT (0.000000000 0.000000000)",
							"envelope" : 2.5,
							"gain" : 2,
							"max_timeout" : 10000000,
							"min_speed" : 0.20000000000000001,
							"speed" : "#cam_speed",
							"start_pt" : "POINT (0.000000000 0.000000000)",
							"timeout_increment" : 45,
							"timeout_multiplier" : 1.5,
							"type" : "lrauv_trackbf",
							"uuid" : "00000000-0000-0000-0000-000000000019"
						},
						"type" : "transect",
						"uuid" : "00000000-0000-0000-0000-f00000000019"
					},
					{
						"backup_dist" : 15,
						"end_pt" : "POINT (-71.102973 41.115832)",
						"global_shift_east" : "#shift_east",
						"global_shift_north" : "#shift_north",
						"local_shift_east" : 0,
						"local_shift_north" : 0,
						"max_timeout" : 10000000,
						"start_pt" : "POINT (-71.079167 41.116264)",
						"trackline" : 
						{
							"alarm_timeout" : 15,
							"altitude" : "#cam_alt",
							"cancel" : "/cancel/primitive",
							"depth_floor" : "#depth_floor",
							"depthacc" : 0.33000000000000002,
							"depthvel" : 0.33000000000000002,
							"end_pt" : "POINT (0.000000000 0.000000000)",
							"envelope" : 2.5,
							"gain" : 2,
							"max_timeout" : 10000000,
							"min_speed" : 0.20000000000000001,
							"speed" : "#cam_speed",
							"start_pt" : "POINT (0.000000000 0.000000000)",
							"timeout_increment" : 45,
							"timeout_multiplier" : 1.5,
							"type" : "lrauv_trackbf",
							"uuid" : "00000000-0000-0000-0000-000000000020"
						},
						"type" : "transect",
						"uuid" : "00000000-0000-0000-0000-f00000000020"
					},
					{
						"backup_dist" : 15,
						"end_pt" : "POINT (-71.102945 41.114932)",
						"global_shift_east" : "#shift_east",
						"global_shift_north" : "#shift_north",
						"local_shift_east" : 0,
						"local_shift_north" : 0,
						"max_timeout" : 10000000,
						"start_pt" : "POINT (-71.102973 41.115832)",
						"trackline" : 
						{
							"alarm_timeout" : 15,
							"altitude" : "#cam_alt",
							"cancel" : "/cancel/primitive",
							"depth_floor" : "#depth_floor",
							"depthacc" : 0.33000000000000002,
							"depthvel" : 0.33000000000000002,
							"end_pt" : "POINT (0.000000000 0.000000000)",
							"envelope" : 2.5,
							"gain" : 2,
							"max_timeout" : 10000000,
							"min_speed" : 0.20000000000000001,
							"speed" : "#cam_speed",
							"start_pt" : "POINT (0.000000000 0.000000000)",
							"timeout_increment" : 45,
							"timeout_multiplier" : 1.5,
							"type" : "lrauv_trackbf",
							"uuid" : "00000000-0000-0000-0000-000000000021"
						},
						"type" : "transect",
						"uuid" : "00000000-0000-0000-0000-f00000000021"
					},
					{
						"backup_dist" : 15,
						"end_pt" : "POINT (-71.079138 41.115364)",
						"global_shift_east" : "#shift_east",
						"global_shift_north" : "#shift_north",
						"local_shift_east" : 0,
						"local_shift_north" : 0,
						"max_timeout" : 10000000,
						"start_pt" : "POINT (-71.102945 41.114932)",
						"trackline" : 
						{
							"alarm_timeout" : 15,
							"altitude" : "#cam_alt",
							"cancel" : "/cancel/primitive",
							"depth_floor" : "#depth_floor",
							"depthacc" : 0.33000000000000002,
							"depthvel" : 0.33000000000000002,
							"end_pt" : "POINT (0.000000000 0.000000000)",
							"envelope" : 2.5,
							"gain" : 2,
							"max_timeout" : 10000000,
							"min_speed" : 0.20000000000000001,
							"speed" : "#cam_speed",
							"start_pt" : "POINT (0.000000000 0.000000000)",
							"timeout_increment" : 45,
							"timeout_multiplier" : 1.5,
							"type" : "lrauv_trackbf",
							"uuid" : "00000000-0000-0000-0000-000000000022"
						},
						"type" : "transect",
						"uuid" : "00000000-0000-0000-0000-f00000000022"
					},
					{
						"backup_dist" : 15,
						"end_pt" : "POINT (-71.079110 41.114464)",
						"global_shift_east" : "#shift_east",
						"global_shift_north" : "#shift_north",
						"local_shift_east" : 0,
						"local_shift_north" : 0,
						"max_timeout" : 10000000,
						"start_pt" : "POINT (-71.079138 41.115364)",
						"trackline" : 
						{
							"alarm_timeout" : 15,
							"altitude" : "#cam_alt",
							"cancel" : "/cancel/primitive",
							"depth_floor" : "#depth_floor",
							"depthacc" : 0.33000000000000002,
							"depthvel" : 0.33000000000000002,
							"end_pt" : "POINT (0.000000000 0.000000000)",
							"envelope" : 2.5,
							"gain" : 2,
							"max_timeout" : 10000000,
							"min_speed" : 0.20000000000000001,
							"speed" : "#cam_speed",
							"start_pt" : "POINT (0.000000000 0.000000000)",
							"timeout_increment" : 45,
							"timeout_multiplier" : 1.5,
							"type" : "lrauv_trackbf",
							"uuid" : "00000000-0000-0000-0000-000000000023"
						},
						"type" : "transect",
						"uuid" : "00000000-0000-0000-0000-f00000000023"
					},
					{
						"backup_dist" : 15,
						"end_pt" : "POINT (-71.102916 41.114031)",
						"global_shift_east" : "#shift_east",
						"global_shift_north" : "#shift_north",
						"local_shift_east" : 0,
						"local_shift_north" : 0,
						"max_timeout" : 10000000,
						"start_pt" : "POINT (-71.079110 41.114464)",
						"trackline" : 
						{
							"alarm_timeout" : 15,
							"altitude" : "#cam_alt",
							"cancel" : "/cancel/primitive",
							"depth_floor" : "#depth_floor",
							"depthacc" : 0.33000000000000002,
							"depthvel" : 0.33000000000000002,
							"end_pt" : "POINT (0.000000000 0.000000000)",
							"envelope" : 2.5,
							"gain" : 2,
							"max_timeout" : 10000000,
							"min_speed" : 0.20000000000000001,
							"speed" : "#cam_speed",
							"start_pt" : "POINT (0.000000000 0.000000000)",
							"timeout_increment" : 45,
							"timeout_multiplier" : 1.5,
							"type" : "lrauv_trackbf",
							"uuid" : "00000000-0000-0000-0000-000000000024"
						},
						"type" : "transect",
						"uuid" : "00000000-0000-0000-0000-f00000000024"
					},
					{
						"backup_dist" : 15,
						"end_pt" : "POINT (-71.102887 41.113131)",
						"global_shift_east" : "#shift_east",
						"global_shift_north" : "#shift_north",
						"local_shift_east" : 0,
						"local_shift_north" : 0,
						"max_timeout" : 10000000,
						"start_pt" : "POINT (-71.102916 41.114031)",
						"trackline" : 
						{
							"alarm_timeout" : 15,
							"altitude" : "#cam_alt",
							"cancel" : "/cancel/primitive",
							"depth_floor" : "#depth_floor",
							"depthacc" : 0.33000000000000002,
							"depthvel" : 0.33000000000000002,
							"end_pt" : "POINT (0.000000000 0.000000000)",
							"envelope" : 2.5,
							"gain" : 2,
							"max_timeout" : 10000000,
							"min_speed" : 0.20000000000000001,
							"speed" : "#cam_speed",
							"start_pt" : "POINT (0.000000000 0.000000000)",
							"timeout_increment" : 45,
							"timeout_multiplier" : 1.5,
							"type" : "lrauv_trackbf",
							"uuid" : "00000000-0000-0000-0000-000000000025"
						},
						"type" : "transect",
						"uuid" : "00000000-0000-0000-0000-f00000000025"
					},
					{
						"backup_dist" : 15,
						"end_pt" : "POINT (-71.079081 41.113563)",
						"global_shift_east" : "#shift_east",
						"global_shift_north" : "#shift_north",
						"local_shift_east" : 0,
						"local_shift_north" : 0,
						"max_timeout" : 10000000,
						"start_pt" : "POINT (-71.102887 41.113131)",
						"trackline" : 
						{
							"alarm_timeout" : 15,
							"altitude" : "#cam_alt",
							"cancel" : "/cancel/primitive",
							"depth_floor" : "#depth_floor",
							"depthacc" : 0.33000000000000002,
							"depthvel" : 0.33000000000000002,
							"end_pt" : "POINT (0.000000000 0.000000000)",
							"envelope" : 2.5,
							"gain" : 2,
							"max_timeout" : 10000000,
							"min_speed" : 0.20000000000000001,
							"speed" : "#cam_speed",
							"start_pt" : "POINT (0.000000000 0.000000000)",
							"timeout_increment" : 45,
							"timeout_multiplier" : 1.5,
							"type" : "lrauv_trackbf",
							"uuid" : "00000000-0000-0000-0000-000000000026"
						},
						"type" : "transect",
						"uuid" : "00000000-0000-0000-0000-f00000000026"
					},
					{
						"backup_dist" : 15,
						"end_pt" : "POINT (-71.079053 41.112663)",
						"global_shift_east" : "#shift_east",
						"global_shift_north" : "#shift_north",
						"local_shift_east" : 0,
						"local_shift_north" : 0,
						"max_timeout" : 10000000,
						"start_pt" : "POINT (-71.079081 41.113563)",
						"trackline" : 
						{
							"alarm_timeout" : 15,
							"altitude" : "#cam_alt",
							"cancel" : "/cancel/primitive",
							"depth_floor" : "#depth_floor",
							"depthacc" : 0.33000000000000002,
							"depthvel" : 0.33000000000000002,
							"end_pt" : "POINT (0.000000000 0.000000000)",
							"envelope" : 2.5,
							"gain" : 2,
							"max_timeout" : 10000000,
							"min_speed" : 0.20000000000000001,
							"speed" : "#cam_speed",
							"start_pt" : "POINT (0.000000000 0.000000000)",
							"timeout_increment" : 45,
							"timeout_multiplier" : 1.5,
							"type" : "lrauv_trackbf",
							"uuid" : "00000000-0000-0000-0000-000000000027"
						},
						"type" : "transect",
						"uuid" : "00000000-0000-0000-0000-f00000000027"
					},
					{
						"backup_dist" : 15,
						"end_pt" : "POINT (-71.102858 41.112231)",
						"global_shift_east" : "#shift_east",
						"global_shift_north" : "#shift_north",
						"local_shift_east" : 0,
						"local_shift_north" : 0,
						"max_timeout" : 10000000,
						"start_pt" : "POINT (-71.079053 41.112663)",
						"trackline" : 
						{
							"alarm_timeout" : 15,
							"altitude" : "#cam_alt",
							"cancel" : "/cancel/primitive",
							"depth_floor" : "#depth_floor",
							"depthacc" : 0.33000000000000002,
							"depthvel" : 0.33000000000000002,
							"end_pt" : "POINT (0.000000000 0.000000000)",
							"envelope" : 2.5,
							"gain" : 2,
							"max_timeout" : 10000000,
							"min_speed" : 0.20000000000000001,
							"speed" : "#cam_speed",
							"start_pt" : "POINT (0.000000000 0.000000000)",
							"timeout_increment" : 45,
							"timeout_multiplier" : 1.5,
							"type" : "lrauv_trackbf",
							"uuid" : "00000000-0000-0000-0000-000000000028"
						},
						"type" : "transect",
						"uuid" : "00000000-0000-0000-0000-f00000000028"
					},
					{
						"backup_dist" : 15,
						"end_pt" : "POINT (-71.102830 41.111331)",
						"global_shift_east" : "#shift_east",
						"global_shift_north" : "#shift_north",
						"local_shift_east" : 0,
						"local_shift_north" : 0,
						"max_timeout" : 10000000,
						"start_pt" : "POINT (-71.102858 41.112231)",
						"trackline" : 
						{
							"alarm_timeout" : 15,
							"altitude" : "#cam_alt",
							"cancel" : "/cancel/primitive",
							"depth_floor" : "#depth_floor",
							"depthacc" : 0.33000000000000002,
							"depthvel" : 0.33000000000000002,
							"end_pt" : "POINT (0.000000000 0.000000000)",
							"envelope" : 2.5,
							"gain" : 2,
							"max_timeout" : 10000000,
							"min_speed" : 0.20000000000000001,
							"speed" : "#cam_speed",
							"start_pt" : "POINT (0.000000000 0.000000000)",
							"timeout_increment" : 45,
							"timeout_multiplier" : 1.5,
							"type" : "lrauv_trackbf",
							"uuid" : "00000000-0000-0000-0000-000000000029"
						},
						"type" : "transect",
						"uuid" : "00000000-0000-0000-0000-f00000000029"
					},
					{
						"backup_dist" : 15,
						"end_pt" : "POINT (-71.079025 41.111763)",
						"global_shift_east" : "#shift_east",
						"global_shift_north" : "#shift_north",
						"local_shift_east" : 0,
						"local_shift_north" : 0,
						"max_timeout" : 10000000,
						"start_pt" : "POINT (-71.102830 41.111331)",
						"trackline" : 
						{
							"alarm_timeout" : 15,
							"altitude" : "#cam_alt",
							"cancel" : "/cancel/primitive",
							"depth_floor" : "#depth_floor",
							"depthacc" : 0.33000000000000002,
							"depthvel" : 0.33000000000000002,
							"end_pt" : "POINT (0.000000000 0.000000000)",
							"envelope" : 2.5,
							"gain" : 2,
							"max_timeout" : 10000000,
							"min_speed" : 0.20000000000000001,
							"speed" : "#cam_speed",
							"start_pt" : "POINT (0.000000000 0.000000000)",
							"timeout_increment" : 45,
							"timeout_multiplier" : 1.5,
							"type" : "lrauv_trackbf",
							"uuid" : "00000000-0000-0000-0000-000000000030"
						},
						"type" : "transect",
						"uuid" : "00000000-0000-0000-0000-f00000000030"
					},
					{
						"backup_dist" : 15,
						"end_pt" : "POINT (-71.078996 41.110863)",
						"global_shift_east" : "#shift_east",
						"global_shift_north" : "#shift_north",
						"local_shift_east" : 0,
						"local_shift_north" : 0,
						"max_timeout" : 10000000,
						"start_pt" : "POINT (-71.079025 41.111763)",
						"trackline" : 
						{
							"alarm_timeout" : 15,
							"altitude" : "#cam_alt",
							"cancel" : "/cancel/primitive",
							"depth_floor" : "#depth_floor",
							"depthacc" : 0.33000000000000002,
							"depthvel" : 0.33000000000000002,
							"end_pt" : "POINT (0.000000000 0.000000000)",
							"envelope" : 2.5,
							"gain" : 2,
							"max_timeout" : 10000000,
							"min_speed" : 0.20000000000000001,
							"speed" : "#cam_speed",
							"start_pt" : "POINT (0.000000000 0.000000000)",
							"timeout_increment" : 45,
							"timeout_multiplier" : 1.5,
							"type" : "lrauv_trackbf",
							"uuid" : "00000000-0000-0000-0000-000000000031"
						},
						"type" : "transect",
						"uuid" : "00000000-0000-0000-0000-f00000000031"
					},
					{
						"backup_dist" : 15,
						"end_pt" : "POINT (-71.102801 41.110431)",
						"global_shift_east" : "#shift_east",
						"global_shift_north" : "#shift_north",
						"local_shift_east" : 0,
						"local_shift_north" : 0,
						"max_timeout" : 10000000,
						"start_pt" : "POINT (-71.078996 41.110863)",
						"trackline" : 
						{
							"alarm_timeout" : 15,
							"altitude" : "#cam_alt",
							"cancel" : "/cancel/primitive",
							"depth_floor" : "#depth_floor",
							"depthacc" : 0.33000000000000002,
							"depthvel" : 0.33000000000000002,
							"end_pt" : "POINT (0.000000000 0.000000000)",
							"envelope" : 2.5,
							"gain" : 2,
							"max_timeout" : 10000000,
							"min_speed" : 0.20000000000000001,
							"speed" : "#cam_speed",
							"start_pt" : "POINT (0.000000000 0.000000000)",
							"timeout_increment" : 45,
							"timeout_multiplier" : 1.5,
							"type" : "lrauv_trackbf",
							"uuid" : "00000000-0000-0000-0000-000000000032"
						},
						"type" : "transect",
						"uuid" : "00000000-0000-0000-0000-f00000000032"
					},
					{
						"backup_dist" : 15,
						"end_pt" : "POINT (-71.111000 41.135059)",
						"global_shift_east" : "#shift_east",
						"global_shift_north" : "#shift_north",
						"local_shift_east" : 0,
						"local_shift_north" : 0,
						"max_timeout" : 10000000,
						"start_pt" : "POINT (-71.102801 41.110431)",
						"trackline" : 
						{
							"alarm_timeout" : 15,
							"altitude" : "#cam_alt",
							"cancel" : "/cancel/primitive",
							"depth_floor" : "#depth_floor",
							"depthacc" : 0.33000000000000002,
							"depthvel" : 0.33000000000000002,
							"end_pt" : "POINT (0.000000000 0.000000000)",
							"envelope" : 2.5,
							"gain" : 2,
							"max_timeout" : 10000000,
							"min_speed" : 0.20000000000000001,
							"speed" : "#cam_speed",
							"start_pt" : "POINT (0.000000000 0.000000000)",
							"timeout_increment" : 45,
							"timeout_multiplier" : 1.5,
							"type" : "lrauv_trackbf",
							"uuid" : "00000000-0000-0000-0000-000000000033"
						},
						"type" : "transect",
						"uuid" : "00000000-0000-0000-0000-f00000000033"
					},
					{
						"backup_dist" : 15,
						"end_pt" : "POINT (-71.110455 41.193280)",
						"global_shift_east" : "#shift_east",
						"global_shift_north" : "#shift_north",
						"local_shift_east" : 0,
						"local_shift_north" : 0,
						"max_timeout" : 10000000,
						"start_pt" : "POINT (-71.111000 41.135059)",
						"trackline" : 
						{
							"alarm_timeout" : 15,
							"altitude" : "#cam_alt",
							"cancel" : "/cancel/primitive",
							"depth_floor" : "#depth_floor",
							"depthacc" : 0.33000000000000002,
							"depthvel" : 0.33000000000000002,
							"end_pt" : "POINT (0.000000000 0.000000000)",
							"envelope" : 2.5,
							"gain" : 2,
							"max_timeout" : 10000000,
							"min_speed" : 0.20000000000000001,
							"speed" : "#cam_speed",
							"start_pt" : "POINT (0.000000000 0.000000000)",
							"timeout_increment" : 45,
							"timeout_multiplier" : 1.5,
							"type" : "lrauv_trackbf",
							"uuid" : "00000000-0000-0000-0000-000000000034"
						},
						"type" : "transect",
						"uuid" : "00000000-0000-0000-0000-f00000000034"
					},
					{
						"backup_dist" : 15,
						"end_pt" : "POINT (-71.121708 41.383997)",
						"global_shift_east" : "#shift_east",
						"global_shift_north" : "#shift_north",
						"local_shift_east" : 0,
						"local_shift_north" : 0,
						"max_timeout" : 10000000,
						"start_pt" : "POINT (-71.110455 41.193280)",
						"trackline" : 
						{
							"alarm_timeout" : 15,
							"altitude" : "#cam_alt",
							"cancel" : "/cancel/primitive",
							"depth_floor" : "#depth_floor",
							"depthacc" : 0.33000000000000002,
							"depthvel" : 0.33000000000000002,
							"end_pt" : "POINT (0.000000000 0.000000000)",
							"envelope" : 2.5,
							"gain" : 2,
							"max_timeout" : 10000000,
							"min_speed" : 0.20000000000000001,
							"speed" : "#cam_speed",
							"start_pt" : "POINT (0.000000000 0.000000000)",
							"timeout_increment" : 45,
							"timeout_multiplier" : 1.5,
							"type" : "lrauv_trackbf",
							"uuid" : "00000000-0000-0000-0000-000000000035"
						},
						"type" : "transect",
						"uuid" : "00000000-0000-0000-0000-f00000000035"
					},
					{
						"backup_dist" : 15,
						"end_pt" : "POINT (-70.753036 41.553930)",
						"global_shift_east" : "#shift_east",
						"global_shift_north" : "#shift_north",
						"local_shift_east" : 0,
						"local_shift_north" : 0,
						"max_timeout" : 10000000,
						"start_pt" : "POINT (-71.121708 41.383997)",
						"trackline" : 
						{
							"alarm_timeout" : 15,
							"altitude" : "#cam_alt",
							"cancel" : "/cancel/primitive",
							"depth_floor" : "#depth_floor",
							"depthacc" : 0.33000000000000002,
							"depthvel" : 0.33000000000000002,
							"end_pt" : "POINT (0.000000000 0.000000000)",
							"envelope" : 2.5,
							"gain" : 2,
							"max_timeout" : 10000000,
							"min_speed" : 0.20000000000000001,
							"speed" : "#cam_speed",
							"start_pt" : "POINT (0.000000000 0.000000000)",
							"timeout_increment" : 45,
							"timeout_multiplier" : 1.5,
							"type" : "lrauv_trackbf",
							"uuid" : "00000000-0000-0000-0000-000000000036"
						},
						"type" : "transect",
						"uuid" : "00000000-0000-0000-0000-f00000000036"
					},
					{
						"backup_dist" : 15,
						"end_pt" : "POINT (-70.694123 41.529372)",
						"global_shift_east" : "#shift_east",
						"global_shift_north" : "#shift_north",
						"local_shift_east" : 0,
						"local_shift_north" : 0,
						"max_timeout" : 10000000,
						"start_pt" : "POINT (-70.753036 41.553930)",
						"trackline" : 
						{
							"alarm_timeout" : 15,
							"altitude" : "#cam_alt",
							"cancel" : "/cancel/primitive",
							"depth_floor" : "#depth_floor",
							"depthacc" : 0.33000000000000002,
							"depthvel" : 0.33000000000000002,
							"end_pt" : "POINT (0.000000000 0.000000000)",
							"envelope" : 2.5,
							"gain" : 2,
							"max_timeout" : 10000000,
							"min_speed" : 0.20000000000000001,
							"speed" : "#cam_speed",
							"start_pt" : "POINT (0.000000000 0.000000000)",
							"timeout_increment" : 45,
							"timeout_multiplier" : 1.5,
							"type" : "lrauv_trackbf",
							"uuid" : "00000000-0000-0000-0000-000000000037"
						},
						"type" : "transect",
						"uuid" : "00000000-0000-0000-0000-f00000000037"
					}
				],
				"type" : "sequence",
				"uuid" : "1d567d3f-cdf9-4364-8aec-501db08edb47"
			},
			"type" : "monitor",
			"uuid" : "b10adbfd-86b2-4866-b602-263450c5edb3"
		},
		"type" : "simple_root",
		"uuid" : "fbf3ce03-7076-448e-b640-7a92b6a41a75"
	},
	"shared" : 
	{
		"cam_alt" : 
		{
			"max" : 120,
			"min" : 1.5,
			"type" : "double",
			"value" : 20
		},
		"cam_speed" : 
		{
			"max" : 1.5,
			"min" : 0.20000000000000001,
			"type" : "double",
			"value" : 0.59999999999999998
		},
		"depth_floor" : 
		{
			"max" : 6000,
			"min" : 10,
			"type" : "double",
			"value" : 3000
		},
		"mb_alt" : 
		{
			"max" : 120,
			"min" : 1.5,
			"type" : "double",
			"value" : 65
		},
		"mb_high_alt" : 
		{
			"max" : 120,
			"min" : 1.5,
			"type" : "double",
			"value" : 100
		},
		"mb_speed" : 
		{
			"max" : 1.5,
			"min" : 0.20000000000000001,
			"type" : "double",
			"value" : 1
		},
		"shift_east" : 
		{
			"max" : 50000,
			"min" : -50000,
			"type" : "double",
			"value" : 0
		},
		"shift_north" : 
		{
			"max" : 50000,
			"min" : -50000,
			"type" : "double",
			"value" : 0
		}
	}
}
